%YAML 1.1
%TAG !u! tag:unity3d.com,2011:
--- !u!114 &11400000
MonoBehaviour:
  m_ObjectHideFlags: 0
  m_CorrespondingSourceObject: {fileID: 0}
  m_PrefabInstance: {fileID: 0}
  m_PrefabAsset: {fileID: 0}
  m_GameObject: {fileID: 0}
  m_Enabled: 1
  m_EditorHideFlags: 0
  m_Script: {fileID: 11500000, guid: 91ff43b980be65d4fb9a84ac7a346333, type: 3}
  m_Name: 01_Pupper
  m_EditorClassIdentifier: 
  storeItem:
    name: Pupper
    icon: {fileID: -383310834437258204, guid: 2811edc48d6dee94c9b215a181c68afa, type: 3}
    cost: 15
    level: 0
    cps: 1
