%YAML 1.1
%TAG !u! tag:unity3d.com,2011:
--- !u!221 &22100000
AnimatorOverrideController:
  m_ObjectHideFlags: 0
  m_CorrespondingSourceObject: {fileID: 0}
  m_PrefabInstance: {fileID: 0}
  m_PrefabAsset: {fileID: 0}
  m_Name: dogprinter
  m_Controller: {fileID: 9100000, guid: 7db040a1bd9df9e49b58531331b0dd57, type: 2}
  m_Clips:
  - m_OriginalClip: {fileID: 7400000, guid: 87d1eb1e7374c9f41957fa0c72eedb75, type: 2}
    m_OverrideClip: {fileID: 7400000, guid: 87d1eb1e7374c9f41957fa0c72eedb75, type: 2}
